{
  "name": "cgifederal-new_relic",
  "version": "0.0.2",
  "author": "Brad Herring",
  "license": "Apache-2.0",
  "summary": "New Relic Server and APM management",
  "source": "https://bitbucket.org/cgigsaocsit/new-relic-puppet-module",
  "project_page": "https://bitbucket.org/cgigsaocsit/new-relic-puppet-module",
  "issues_url": "https://bitbucket.org/cgigsaocsit/new-relic-puppet-module/issues",
  "tags": ["NewRelic", "CGIFederal"],
  "operatingsystem_support": [
    {
      "operatingsystem":"RedHat",
      "operatingsystemrelease": [
        "5.0",
        "6.0"
      ]
    },
    {
      "operatingsystem":"CentOS",
      "operatingsystemrelease": [
        "5.0",
        "6.0"
      ]
    },
    {
      "operatingsystem": "Windows",
      "operatingsystemrelease": [
        "Server 2008",
        "Server 2008 R2",
        "7"
     ]
    }
  ],
  "dependencies": [
    { "name": "puppetlabs/stdlib", "version_requirement": ">= 3.2.0 <5.0.0" },
    { "name": "puppetlabs/registry", "version_requirement": ">= 1.1.2" }
  ]
}
